Info: Starting: Create HDL design files for synthesis
Info: qsys-generate /afs/cern.ch/work/t/tlevens/repos/BI_HDL_Cores/modules/vfc_configuration/asmi_parallel/asmi_parallel.qsys --synthesis=VERILOG --output-directory=/afs/cern.ch/work/t/tlevens/repos/BI_HDL_Cores/modules/vfc_configuration/asmi_parallel/synthesis --family="Arria V" --part=5AGXMB1G4F40C4
Progress: Loading asmi_parallel/asmi_parallel.qsys
Progress: Reading input file
Progress: Adding asmi_parallel_0 [altera_asmi_parallel 16.0]
Progress: Parameterizing module asmi_parallel_0
Progress: Building connections
Progress: Parameterizing connections
Progress: Validating
Progress: Done reading input file
Info: asmi_parallel: Generating asmi_parallel "asmi_parallel" for QUARTUS_SYNTH
Info: asmi_parallel_0: generating top-level entity asmi_parallel_asmi_parallel_0
Info: asmi_parallel_0: "asmi_parallel" instantiated altera_asmi_parallel "asmi_parallel_0"
Info: asmi_parallel: Done "asmi_parallel" with 2 modules, 2 files
Info: qsys-generate succeeded.
Info: Finished: Create HDL design files for synthesis
